<svg width="20" height="16" viewBox="0 0 20 16" fill="none" xmlns="http://www.w3.org/2000/svg">
<path d="M5.98253 13.8978L18.9825 1.89779M1.0874 7.96682L7.43769 14.6507" stroke="#3CB371" stroke-width="3"/>
</svg>
